solid OpenSCAD_Model
  facet normal -1 0 0
    outer loop
      vertex 0 80 0
      vertex 0 2 40
      vertex 0 80 40
    endloop
  endfacet
  facet normal -1 0 0
    outer loop
      vertex 0 0 62
      vertex 0 2 40
      vertex 0 0 0
    endloop
  endfacet
  facet normal -1 0 0
    outer loop
      vertex 0 0 0
      vertex 0 2 40
      vertex 0 80 0
    endloop
  endfacet
  facet normal -1 0 0
    outer loop
      vertex 0 2 60
      vertex 0 40 62
      vertex 0 40 60
    endloop
  endfacet
  facet normal -1 0 0
    outer loop
      vertex 0 2 60
      vertex 0 0 62
      vertex 0 40 62
    endloop
  endfacet
  facet normal -1 0 0
    outer loop
      vertex 0 2 40
      vertex 0 0 62
      vertex 0 2 60
    endloop
  endfacet
  facet normal -0 0 1
    outer loop
      vertex 2 80 2
      vertex 180 2 2
      vertex 180 80 2
    endloop
  endfacet
  facet normal 0 0 1
    outer loop
      vertex 180 2 2
      vertex 2 80 2
      vertex 2 2 2
    endloop
  endfacet
  facet normal 1 0 0
    outer loop
      vertex 180 40 62
      vertex 180 2 60
      vertex 180 40 60
    endloop
  endfacet
  facet normal 1 -0 0
    outer loop
      vertex 180 0 62
      vertex 180 2 60
      vertex 180 40 62
    endloop
  endfacet
  facet normal 1 0 0
    outer loop
      vertex 180 0 40
      vertex 180 2 60
      vertex 180 0 62
    endloop
  endfacet
  facet normal 1 0 0
    outer loop
      vertex 180 2 60
      vertex 180 0 40
      vertex 180 2 40
    endloop
  endfacet
  facet normal -1 0 0
    outer loop
      vertex 180 2 2
      vertex 180 80 40
      vertex 180 80 2
    endloop
  endfacet
  facet normal -1 -0 0
    outer loop
      vertex 180 80 40
      vertex 180 2 2
      vertex 180 2 40
    endloop
  endfacet
  facet normal 0 0 -1
    outer loop
      vertex 0 0 0
      vertex 182 80 0
      vertex 182 0 0
    endloop
  endfacet
  facet normal -0 0 -1
    outer loop
      vertex 182 80 0
      vertex 0 0 0
      vertex 0 80 0
    endloop
  endfacet
  facet normal 0 -1 0
    outer loop
      vertex 0 0 62
      vertex 180 0 40
      vertex 180 0 62
    endloop
  endfacet
  facet normal 0 -1 0
    outer loop
      vertex 0 0 0
      vertex 180 0 40
      vertex 0 0 62
    endloop
  endfacet
  facet normal 0 -1 0
    outer loop
      vertex 182 0 0
      vertex 180 0 40
      vertex 0 0 0
    endloop
  endfacet
  facet normal 0 -1 0
    outer loop
      vertex 180 0 40
      vertex 182 0 0
      vertex 182 0 40
    endloop
  endfacet
  facet normal 0 1 0
    outer loop
      vertex 182 80 40
      vertex 180 80 2
      vertex 180 80 40
    endloop
  endfacet
  facet normal 0 1 0
    outer loop
      vertex 180 80 2
      vertex 182 80 0
      vertex 2 80 2
    endloop
  endfacet
  facet normal 0 1 -0
    outer loop
      vertex 182 80 0
      vertex 180 80 2
      vertex 182 80 40
    endloop
  endfacet
  facet normal 0 1 -0
    outer loop
      vertex 2 80 2
      vertex 0 80 40
      vertex 2 80 40
    endloop
  endfacet
  facet normal 0 1 0
    outer loop
      vertex 2 80 2
      vertex 0 80 0
      vertex 0 80 40
    endloop
  endfacet
  facet normal 0 1 0
    outer loop
      vertex 0 80 0
      vertex 2 80 2
      vertex 182 80 0
    endloop
  endfacet
  facet normal 0 0 -1
    outer loop
      vertex 0 2 60
      vertex 180 40 60
      vertex 180 2 60
    endloop
  endfacet
  facet normal -0 0 -1
    outer loop
      vertex 180 40 60
      vertex 0 2 60
      vertex 0 40 60
    endloop
  endfacet
  facet normal 0 1 -0
    outer loop
      vertex 180 2 2
      vertex 2 2 40
      vertex 180 2 40
    endloop
  endfacet
  facet normal 0 1 0
    outer loop
      vertex 2 2 40
      vertex 180 2 2
      vertex 2 2 2
    endloop
  endfacet
  facet normal 0 1 0
    outer loop
      vertex 2 2 40
      vertex 180 2 60
      vertex 180 2 40
    endloop
  endfacet
  facet normal 0 1 0
    outer loop
      vertex 180 2 60
      vertex 2 2 40
      vertex 0 2 60
    endloop
  endfacet
  facet normal 0 1 0
    outer loop
      vertex 0 2 60
      vertex 2 2 40
      vertex 0 2 40
    endloop
  endfacet
  facet normal -0 0 1
    outer loop
      vertex 0 80 40
      vertex 2 2 40
      vertex 2 80 40
    endloop
  endfacet
  facet normal 0 0 1
    outer loop
      vertex 2 2 40
      vertex 0 80 40
      vertex 0 2 40
    endloop
  endfacet
  facet normal 1 -0 0
    outer loop
      vertex 2 2 40
      vertex 2 80 2
      vertex 2 80 40
    endloop
  endfacet
  facet normal 1 0 0
    outer loop
      vertex 2 80 2
      vertex 2 2 40
      vertex 2 2 2
    endloop
  endfacet
  facet normal 0 0 1
    outer loop
      vertex 180 2 40
      vertex 182 80 40
      vertex 180 80 40
    endloop
  endfacet
  facet normal 0 0 1
    outer loop
      vertex 182 80 40
      vertex 180 2 40
      vertex 182 0 40
    endloop
  endfacet
  facet normal 0 0 1
    outer loop
      vertex 182 0 40
      vertex 180 2 40
      vertex 180 0 40
    endloop
  endfacet
  facet normal 1 -0 0
    outer loop
      vertex 182 0 40
      vertex 182 80 0
      vertex 182 80 40
    endloop
  endfacet
  facet normal 1 0 0
    outer loop
      vertex 182 80 0
      vertex 182 0 40
      vertex 182 0 0
    endloop
  endfacet
  facet normal -0 0 1
    outer loop
      vertex 0 40 62
      vertex 180 0 62
      vertex 180 40 62
    endloop
  endfacet
  facet normal 0 0 1
    outer loop
      vertex 180 0 62
      vertex 0 40 62
      vertex 0 0 62
    endloop
  endfacet
  facet normal 0 1 -0
    outer loop
      vertex 180 40 60
      vertex 0 40 62
      vertex 180 40 62
    endloop
  endfacet
  facet normal 0 1 0
    outer loop
      vertex 0 40 62
      vertex 180 40 60
      vertex 0 40 60
    endloop
  endfacet
endsolid OpenSCAD_Model
